Vehicle_Miles_To_Work
-1     266232
 0       1066
 1       4148
 2       7087
 3       8511
 4       7380
 5      18533
 6       9314
 7       5655
 8      11489
 9       2538
 10     30906
 11      2539
 12     12986
 13      3641
 14      8279
 15      2254
 16      1201
 17       700
 18      1415
 19       236
 20      5253
 21       278
 22       615
 23       388
 24       334
 25      2879
 26       212
 27       146
 28       304
 29        79
 30      2768
 31        57
 32       149
 33        38
 34        66
 35       940
 36        63
 37        46
 38       115
 39        21
 40       999
 41        13
 42        78
 43        40
 44        10
 45       434
 46        13
 47        27
 48        73
 49        23
 50      1522
 51         4
 52        15
 53         6
 54         3
 55        23
 56         4
 57         4
 58         4
 59         1
 60        98
 61         1
 62         8
 63         3
 64         2
 65        17
 67         1
 70        31
 71         1
 72         2
 75        14
 78         2
 80        16
 83         2
 90         7
 93         1
 95         2
 98         1
 99        65
dtype: int64
--------------------------------------------------------------
