Vehicle_Anti_Theft_Device
Active Disabling                       10578
Alarm Only                             31852
Not Applicable                        248634
Passive Disabling-Vehicle Recovery    133362
Unknown                                    5
dtype: int64
--------------------------------------------------------------
